<svg  xmlns="http://www.w3.org/2000/svg" xmlns:xlink="http://www.w3.org/1999/xlink" version="1.1" x="0px" y="0px" viewBox="0 0 24 24" xml:space="preserve" fill="##ffffff94" style="stroke:none;">
    <path fill="none" d="M0,0h24v24H0V0z"/>
    <path class="o-viewer-mark-arrows" d="M7.5,21.5c-3.3-1.5-5.6-4.7-6-8.5H0.1C0.6,19.2,5.7,24,12,24h0.7l-3.8-3.8L7.5,21.5z M12,0h-0.7l3.8,3.8l1.3-1.3  c3.3,1.5,5.6,4.7,6,8.5h1.5C23.4,4.8,18.3,0,12,0z"/>
    <g style="enable-background:new;">
        <path d="M8.4,12.9c0.2,0.3,0.3,0.6,0.3,1c0,0.6-0.2,1-0.7,1.4c-0.4,0.3-1,0.5-1.8,0.5c-0.5,0-0.9-0.1-1.3-0.2   c-0.4-0.1-0.8-0.3-1-0.5l0.5-1c0.6,0.4,1.2,0.6,1.8,0.6c0.4,0,0.7-0.1,0.9-0.2c0.2-0.1,0.3-0.4,0.3-0.7c0-0.3-0.1-0.5-0.3-0.6   C6.9,13,6.6,13,6.2,13H5.3v-1.1h0.8c0.4,0,0.7-0.1,0.8-0.2c0.2-0.1,0.3-0.3,0.3-0.6c0-0.3-0.1-0.5-0.2-0.6   c-0.2-0.1-0.4-0.2-0.7-0.2c-0.3,0-0.6,0.1-0.9,0.2c-0.3,0.1-0.6,0.3-0.9,0.5l-0.5-1c0.3-0.2,0.6-0.4,1-0.5c0.4-0.1,0.8-0.2,1.3-0.2   c0.4,0,0.8,0.1,1.2,0.2c0.3,0.1,0.6,0.4,0.8,0.6c0.2,0.3,0.3,0.6,0.3,0.9c0,0.4-0.1,0.7-0.3,0.9c-0.2,0.3-0.4,0.5-0.8,0.6   C7.9,12.5,8.2,12.7,8.4,12.9z"/>
        <path d="M13.5,11.7c0.3,0.2,0.5,0.4,0.7,0.8c0.2,0.3,0.3,0.7,0.3,1.1c0,0.4-0.1,0.8-0.3,1.1c-0.2,0.3-0.5,0.6-0.8,0.8   c-0.3,0.2-0.7,0.3-1.2,0.3c-0.9,0-1.5-0.3-2-0.8c-0.5-0.6-0.7-1.4-0.7-2.4c0-0.7,0.1-1.3,0.3-1.9c0.2-0.5,0.5-0.9,1-1.2   c0.4-0.3,0.9-0.4,1.5-0.4c0.4,0,0.8,0.1,1.2,0.2c0.4,0.1,0.7,0.3,1,0.5l-0.5,1c-0.6-0.4-1.1-0.6-1.6-0.6c-0.4,0-0.8,0.2-1,0.5   c-0.2,0.3-0.4,0.9-0.4,1.5c0.1-0.2,0.3-0.4,0.6-0.6c0.3-0.1,0.6-0.2,0.9-0.2C12.9,11.5,13.2,11.6,13.5,11.7z M12.8,14.4   c0.2-0.2,0.3-0.4,0.3-0.8c0-0.3-0.1-0.6-0.3-0.8c-0.2-0.2-0.4-0.3-0.7-0.3c-0.3,0-0.5,0.1-0.7,0.3c-0.2,0.2-0.3,0.4-0.3,0.8   c0,0.3,0.1,0.6,0.3,0.8c0.2,0.2,0.4,0.3,0.7,0.3C12.4,14.7,12.7,14.6,12.8,14.4z"/>
        <path d="M15.7,15c-0.4-0.6-0.6-1.4-0.6-2.5c0-1.1,0.2-1.9,0.6-2.5c0.4-0.6,1-0.9,1.8-0.9c0.8,0,1.4,0.3,1.8,0.9   c0.4,0.6,0.6,1.4,0.6,2.5c0,1.1-0.2,1.9-0.6,2.5c-0.4,0.6-1,0.9-1.8,0.9C16.7,15.8,16.1,15.5,15.7,15z M18.3,14.2   c0.2-0.4,0.2-0.9,0.2-1.7c0-0.8-0.1-1.4-0.2-1.7c-0.2-0.4-0.4-0.5-0.8-0.5c-0.4,0-0.6,0.2-0.8,0.5c-0.2,0.4-0.2,0.9-0.2,1.7   c0,0.8,0.1,1.4,0.2,1.7c0.2,0.4,0.4,0.5,0.8,0.5C17.9,14.7,18.2,14.5,18.3,14.2z"/>
    </g>
    <path d="M20.7,8.8c-0.3,0-0.6,0.3-0.6,0.6c0,0.3,0.3,0.6,0.6,0.6s0.6-0.3,0.6-0.6C21.3,9.1,21,8.8,20.7,8.8z M20.7,9.8  c-0.2,0-0.4-0.2-0.4-0.4c0-0.2,0.2-0.4,0.4-0.4s0.4,0.2,0.4,0.4C21.1,9.6,20.9,9.8,20.7,9.8z"/>
</svg>
